Higher_bit(7)/test.vcd
$date
	Thu Jun 13 16:44:57 2024
$end
$version
	Icarus Verilog
$end
$timescale
	1ns
$end
$scope module tb_bit $end
$var wire 5 ! position [4:0] $end
$var reg 1 " clk $end
$var reg 32 # data [31:0] $end
$scope module uut $end
$var wire 1 " clk $end
$var wire 32 $ data [31:0] $end
$var reg 5 % position [4:0] $end
$var reg 1 & state $end
$var integer 32 ' i [31:0] $end
$upscope $end
$upscope $end
$enddefinitions $end
#0
$dumpvars
b0 '
0&
b0 %
b0 $
b0 #
0"
b0 !
$end
#5
0&
b111 !
b111 %
b11111111111111111111111111111111 '
b10100100 #
b10100100 $
1"
#10
0"
#15
0&
b110 !
b110 %
b11111111111111111111111111111111 '
1"
b1100100 #
b1100100 $
#20
0"
#25
0&
b101 !
b101 %
b11111111111111111111111111111111 '
1"
b100100 #
b100100 $
#30
0"
#35
0&
b100 !
b100 %
b11111111111111111111111111111111 '
1"
b10001 #
b10001 $
#40
0"
#45
0&
b11 !
b11 %
b11111111111111111111111111111111 '
1"
b1000 #
b1000 $
#50
0"
#55
b0 !
b0 %
b11111111111111111111111111111111 '
1"
b0 #
b0 $
#60
0"
#65
0&
b110 !
b110 %
b11111111111111111111111111111111 '
1"
b1100100 #
b1100100 $
#70
0"
#75
0&
b101 !
b101 %
b11111111111111111111111111111111 '
1"
b100100 #
b100100 $
#80
0"
#85
0&
b11111111111111111111111111111111 '
1"
#90
0"
#95
b0 !
b0 %
b11111111111111111111111111111111 '
1"
b0 #
b0 $
#100
0"
#105
b11111111111111111111111111111111 '
1"
#110
0"
#115
0&
b1111 !
b1111 %
b11111111111111111111111111111111 '
1"
b1001000100010001 #
b1001000100010001 $
#120
0"
#125
0&
b1110 !
b1110 %
b11111111111111111111111111111111 '
1"
b100100000010001 #
b100100000010001 $
#130
0"
#135
0&
b1101 !
b1101 %
b11111111111111111111111111111111 '
1"
b10000000010001 #
b10000000010001 $
#140
0"
#145
b0 !
b0 %
b11111111111111111111111111111111 '
1"
b0 #
b0 $
#150
0"
#155
b11111111111111111111111111111111 '
1"
#160
0"
#165
b11111111111111111111111111111111 '
1"
#170
0"
#175
b11111111111111111111111111111111 '
1"
#180
0"
#185
0&
b11111 !
b11111 %
b11111111111111111111111111111111 '
1"
b10010001000100010010000000010001 #
b10010001000100010010000000010001 $
#190
0"
#195
0&
b11110 !
b11110 %
b11111111111111111111111111111111 '
1"
b1001000000100010010000000010001 #
b1001000000100010010000000010001 $
#200
0"
#205
0&
b11101 !
b11101 %
b11111111111111111111111111111111 '
1"
b100000000100010010000000010001 #
b100000000100010010000000010001 $
#210
0"
#215
0&
b11111111111111111111111111111111 '
1"
#220
0"
#225
b0 !
b0 %
b11111111111111111111111111111111 '
1"
b0 #
b0 $
#230
0"
#235
b11111111111111111111111111111111 '
1"
#240
0"
#245
b11111111111111111111111111111111 '
1"
#250
0"
#255
b11111111111111111111111111111111 '
1"
#260
0"
#265
b11111111111111111111111111111111 '
1"
#270
0"
#275
b11111111111111111111111111111111 '
1"
#280
0"
#285
b11111111111111111111111111111111 '
1"
#290
0"
#295
b11111111111111111111111111111111 '
1"
#300
0"
#305
b11111111111111111111111111111111 '
1"
#310
0"
#315
b11111111111111111111111111111111 '
1"
#320
0"
#325
b11111111111111111111111111111111 '
1"
