Spi_receiver(4)/test.vcd
$date
	Thu Jun 13 15:16:29 2024
$end
$version
	Icarus Verilog
$end
$timescale
	1ns
$end
$scope module tb_spi $end
$var wire 1 ! wr_en_out $end
$var wire 32 " wr_data_out [31:0] $end
$var wire 24 # wr_address_out [23:0] $end
$var reg 1 $ copi $end
$var reg 1 % cs $end
$var reg 1 & sck $end
$var integer 32 ' i [31:0] $end
$scope module uut $end
$var wire 1 $ copi $end
$var wire 1 % cs $end
$var wire 1 & sck $end
$var wire 24 ( wr_address_out [23:0] $end
$var wire 32 ) wr_data_out [31:0] $end
$var wire 1 ! wr_en_out $end
$var reg 24 * address [23:0] $end
$var reg 6 + bit_count [5:0] $end
$var reg 8 , command [7:0] $end
$var reg 32 - data [31:0] $end
$var reg 24 . reg_wr_address_out [23:0] $end
$var reg 32 / reg_wr_data_out [31:0] $end
$var reg 1 0 reg_wr_en_out $end
$var reg 1 1 state $end
$upscope $end
$scope task send_byte $end
$var reg 8 2 byte [7:0] $end
$upscope $end
$upscope $end
$enddefinitions $end
#0
$dumpvars
bx 2
01
00
b0 /
b0 .
b0 -
b0 ,
b0 +
b0 *
b0 )
b0 (
b0 '
0&
1%
0$
b0 #
b0 "
0!
$end
#5
1&
#10
0&
#15
1&
#20
0&
#25
b1 +
b10000000 ,
1&
1$
b111 '
b10100100 2
0%
#30
0&
#35
b10 +
1&
0$
b110 '
#40
0&
#45
b11 +
b10100000 ,
1&
1$
b101 '
#50
0&
#55
b100 +
1&
0$
b100 '
#60
0&
#65
b101 +
1&
b11 '
#70
0&
#75
b110 +
b10100100 ,
1&
1$
b10 '
#80
0&
#85
b111 +
1&
0$
b1 '
#90
0&
#95
11
b0 +
1&
b0 '
#100
0&
#105
1&
b10010 2
b111 '
#110
0&
#115
1&
b110 '
#120
0&
#125
1&
b101 '
#130
0&
#135
1&
1$
b100 '
#140
0&
#145
1&
0$
b11 '
#150
0&
#155
1&
b10 '
#160
0&
#165
1&
1$
b1 '
#170
0&
#175
1&
0$
b0 '
#180
0&
#185
1&
b110100 2
b111 '
#190
0&
#195
1&
b110 '
#200
0&
#205
1&
1$
b101 '
#210
0&
#215
1&
b100 '
#220
0&
#225
1&
0$
b11 '
#230
0&
#235
1&
1$
b10 '
#240
0&
#245
1&
0$
b1 '
#250
0&
#255
1&
b0 '
#260
0&
#265
1&
b1010110 2
b111 '
#270
0&
#275
1&
1$
b110 '
#280
0&
#285
1&
0$
b101 '
#290
0&
#295
1&
1$
b100 '
#300
0&
#305
1&
0$
b11 '
#310
0&
#315
1&
1$
b10 '
#320
0&
#325
1&
b1 '
#330
0&
#335
1&
0$
b0 '
#340
0&
#345
1&
1$
b11011110 2
b111 '
#350
0&
#355
1&
b110 '
#360
0&
#365
1&
0$
b101 '
#370
0&
#375
1&
1$
b100 '
#380
0&
#385
1&
b11 '
#390
0&
#395
1&
b10 '
#400
0&
#405
1&
b1 '
#410
0&
#415
1&
0$
b0 '
#420
0&
#425
1&
1$
b10101101 2
b111 '
#430
0&
#435
1&
0$
b110 '
#440
0&
#445
1&
1$
b101 '
#450
0&
#455
1&
0$
b100 '
#460
0&
#465
1&
1$
b11 '
#470
0&
#475
1&
b10 '
#480
0&
#485
1&
0$
b1 '
#490
0&
#495
1&
1$
b0 '
#500
0&
#505
1&
b10111110 2
b111 '
#510
0&
#515
1&
0$
b110 '
#520
0&
#525
1&
1$
b101 '
#530
0&
#535
1&
b100 '
#540
0&
#545
1&
b11 '
#550
0&
#555
1&
b10 '
#560
0&
#565
1&
b1 '
#570
0&
#575
1&
0$
b0 '
#580
0&
#585
1&
1$
b11101111 2
b111 '
#590
0&
#595
1&
b110 '
#600
0&
#605
1&
b101 '
#610
0&
#615
1&
0$
b100 '
#620
0&
#625
1&
1$
b11 '
#630
0&
#635
1&
b10 '
#640
0&
#645
1&
b1 '
#650
0&
#655
1&
b0 '
#660
0&
#665
01
1&
1%
b11111111111111111111111111111111 '
#670
0&
#675
1&
#680
0&
#685
1&
#690
0&
#695
1&
#700
0&
#705
1&
#710
0&
#715
1&
#720
0&
#725
1&
#730
0&
#735
1&
#740
0&
#745
1&
#750
0&
#755
1&
#760
0&
#765
b1 +
1&
b111 '
b10100001 2
0%
#770
0&
#775
b10 +
1&
0$
b110 '
#780
0&
#785
b11 +
1&
1$
b101 '
#790
0&
#795
b100 +
1&
0$
b100 '
#800
0&
#805
b101 +
1&
b11 '
#810
0&
#815
b110 +
b10100000 ,
1&
b10 '
#820
0&
#825
b111 +
1&
b1 '
#830
0&
#835
11
b0 +
b10100001 ,
1&
1$
b0 '
#840
0&
#845
b1 +
1&
0$
b10010 2
b111 '
#850
0&
#855
b10 +
1&
b110 '
#860
0&
#865
b11 +
1&
b101 '
#870
0&
#875
b100 +
b100000000000000000000 *
1&
1$
b100 '
#880
0&
#885
b101 +
1&
0$
b11 '
#890
0&
#895
b110 +
1&
b10 '
#900
0&
#905
b111 +
b100100000000000000000 *
1&
1$
b1 '
#910
0&
#915
b1000 +
1&
0$
b0 '
#920
0&
#925
b1001 +
1&
b110100 2
b111 '
#930
0&
#935
b1010 +
1&
b110 '
#940
0&
#945
b1011 +
b100100010000000000000 *
1&
1$
b101 '
#950
0&
#955
b1100 +
b100100011000000000000 *
1&
b100 '
#960
0&
#965
b1101 +
1&
0$
b11 '
#970
0&
#975
b1110 +
b100100011010000000000 *
1&
1$
b10 '
#980
0&
#985
b1111 +
1&
0$
b1 '
#990
0&
#995
b10000 +
1&
b0 '
#1000
0&
#1005
b10001 +
1&
b1010110 2
b111 '
#1010
0&
#1015
b10010 +
b100100011010001000000 *
1&
1$
b110 '
#1020
0&
#1025
b10011 +
1&
0$
b101 '
#1030
0&
#1035
b10100 +
b100100011010001010000 *
1&
1$
b100 '
#1040
0&
#1045
b10101 +
1&
0$
b11 '
#1050
0&
#1055
b10110 +
b100100011010001010100 *
1&
1$
b10 '
#1060
0&
#1065
b10111 +
b100100011010001010110 *
1&
b1 '
#1070
0&
#1075
b11000 +
1&
0$
b0 '
#1080
0&
#1085
b11001 +
b10000000000000000000000000000000 -
1&
1$
b11011110 2
b111 '
#1090
0&
#1095
b11010 +
b11000000000000000000000000000000 -
1&
b110 '
#1100
0&
#1105
b11011 +
1&
0$
b101 '
#1110
0&
#1115
b11100 +
b11010000000000000000000000000000 -
1&
1$
b100 '
#1120
0&
#1125
b11101 +
b11011000000000000000000000000000 -
1&
b11 '
#1130
0&
#1135
b11110 +
b11011100000000000000000000000000 -
1&
b10 '
#1140
0&
#1145
b11111 +
b11011110000000000000000000000000 -
1&
b1 '
#1150
0&
#1155
b100000 +
1&
0$
b0 '
#1160
0&
#1165
b100001 +
b11011110100000000000000000000000 -
1&
1$
b10101101 2
b111 '
#1170
0&
#1175
b100010 +
1&
0$
b110 '
#1180
0&
#1185
b100011 +
b11011110101000000000000000000000 -
1&
1$
b101 '
#1190
0&
#1195
b100100 +
1&
0$
b100 '
#1200
0&
#1205
b100101 +
b11011110101010000000000000000000 -
1&
1$
b11 '
#1210
0&
#1215
b100110 +
b11011110101011000000000000000000 -
1&
b10 '
#1220
0&
#1225
b100111 +
1&
0$
b1 '
#1230
0&
#1235
b101000 +
b11011110101011010000000000000000 -
1&
1$
b0 '
#1240
0&
#1245
b101001 +
b11011110101011011000000000000000 -
1&
b10111110 2
b111 '
#1250
0&
#1255
b101010 +
1&
0$
b110 '
#1260
0&
#1265
b101011 +
b11011110101011011010000000000000 -
1&
1$
b101 '
#1270
0&
#1275
b101100 +
b11011110101011011011000000000000 -
1&
b100 '
#1280
0&
#1285
b101101 +
b11011110101011011011100000000000 -
1&
b11 '
#1290
0&
#1295
b101110 +
b11011110101011011011110000000000 -
1&
b10 '
#1300
0&
#1305
b101111 +
b11011110101011011011111000000000 -
1&
b1 '
#1310
0&
#1315
b110000 +
1&
0$
b0 '
#1320
0&
#1325
b110001 +
b11011110101011011011111010000000 -
1&
1$
b11101111 2
b111 '
#1330
0&
#1335
b110010 +
b11011110101011011011111011000000 -
1&
b110 '
#1340
0&
#1345
b110011 +
b11011110101011011011111011100000 -
1&
b101 '
#1350
0&
#1355
b110100 +
1&
0$
b100 '
#1360
0&
#1365
b110101 +
b11011110101011011011111011101000 -
1&
1$
b11 '
#1370
0&
#1375
b110110 +
b11011110101011011011111011101100 -
1&
b10 '
#1380
0&
#1385
b110111 +
b11011110101011011011111011101110 -
1&
b1 '
#1390
0&
#1395
b11011110101011011011111011101110 "
b11011110101011011011111011101110 )
b11011110101011011011111011101110 /
b100100011010001010110 #
b100100011010001010110 (
b100100011010001010110 .
1!
10
b111000 +
b11011110101011011011111011101111 -
1&
b0 '
#1400
0&
#1405
0!
00
b0 +
01
1&
1%
b11111111111111111111111111111111 '
#1410
0&
#1415
1&
#1420
0&
#1425
1&
#1430
0&
#1435
1&
#1440
0&
#1445
1&
#1450
0&
#1455
1&
#1460
0&
#1465
1&
#1470
0&
#1475
1&
#1480
0&
#1485
1&
#1490
0&
#1495
1&
#1500
0&
#1505
1&
